HW06ï¼šWorking with Strings
…
Provide a summary of which train lines are affected by weekday vs.Â weekend.

plot<-tidy%>%filter(train !="")%>%
        select(train,weekend)%>%
        group_by(train,weekend)%>%summarise(n = n())%>%
        mutate(weekend, percent = paste0(sprintf("%1.1f",
                                          n/sum(n)*100),"%"))

plot

## # A tibble: 46 x 4
## # Groups:   train [24]
##    train weekend     n percent
##    <chr> <chr>   <int> <chr>  
##  1 1     weekday   144 70.2%  
##  2 1     weekend    61 29.8%  
##  3 2     weekday   288 75.0%  
##  4 2     weekend    96 25.0%  
##  5 3     weekday   182 78.1%  
##  6 3     weekend    51 21.9%  
##  7 4     weekday   193 71.5%  
##  8 4     weekend    77 28.5%  
##  9 5     weekday   216 76.9%  
## 10 5     weekend    65 23.1%  
## # ... with 36 more rows
…
